Kaspersky Data Part one: compilation and pre-processing
…
## # A tibble: 6 x 10
##   date        hour country local_infection ondemand_scan malicious_mail
##   <date>     <int> <chr>             <dbl>         <dbl>          <dbl>
## 1 2020-09-20    18 United~           12166          9349            318
## 2 2020-09-20    19 United~           11650          9233            291
## 3 2020-09-20    20 United~           12407          9990            281
## 4 2020-09-20    21 United~           12395          9397            316
## 5 2020-09-20    22 United~           12140         10619            317
## 6 2020-09-20    23 United~           12159         13524            278
## # ... with 4 more variables: web_threat <dbl>, network_attack <dbl>,
## #   vulnerabilities <dbl>, spam <dbl>

na.webthreat[na.webthreat$country == "China",]

## # A tibble: 152 x 10
##    date        hour country local_infection ondemand_scan malicious_mail
##    <date>     <int> <chr>             <dbl>         <dbl>          <dbl>
##  1 2020-08-10    22 China                NA            NA             NA
##  2 2020-08-10    23 China                NA            NA             NA
##  3 2020-08-11     0 China                NA            NA             NA
##  4 2020-08-11     1 China                NA            NA             NA
##  5 2020-08-11     2 China                NA            NA             NA
##  6 2020-08-11     3 China                NA            NA             NA
##  7 2020-08-11     4 China                NA            NA             NA
##  8 2020-08-11     5 China                NA            NA             NA
##  9 2020-08-23     0 China             12733          5230             15
## 10 2020-08-23     1 China             14413          5567              7
## # ... with 142 more rows, and 4 more variables: web_threat <dbl>,
## #   network_attack <dbl>, vulnerabilities <dbl>, spam <dbl>
…
## `summarise()` regrouping output by 'country' (override with `.groups` argument)

monday_new$date <- as.Date("2020-08-10")
monday_new <- monday_new[, c(10, 2, 1, 3:9)]
monday_new <- as.data.frame(monday_new)

hourly2 <- filter(compiled.hourly, !(compiled.hourly$date == as.Date("2020-08-10") & compiled.hourly$hour %in% c(22,23)))

hourly2 <- rbind(hourly2, monday_new)
hourly2 <- hourly2[order(hourly2$country, hourly2$date),]
head(hourly2,40)

## # A tibble: 40 x 10
##    date        hour country local_infection ondemand_scan malicious_mail
##    <date>     <int> <chr>             <dbl>         <dbl>          <dbl>
##  1 2020-08-10     0 Algeria            3056          1503              7
##  2 2020-08-10     1 Algeria            2617          1057              3
##  3 2020-08-10     2 Algeria            2770           721             10
##  4 2020-08-10     3 Algeria            2481           484             19
##  5 2020-08-10     4 Algeria            2158           726              6
##  6 2020-08-10     5 Algeria            2313           622             23
##  7 2020-08-10     6 Algeria            4940          1338             43
##  8 2020-08-10     7 Algeria           14633          7305            358
##  9 2020-08-10     8 Algeria           15123         14643            348
## 10 2020-08-10     9 Algeria           14787         11857            344
## # ... with 30 more rows, and 4 more variables: web_threat <dbl>,
## #   network_attack <dbl>, vulnerabilities <dbl>, spam <dbl>
…
